^C:\USERS\KIRILL\SOURCE\REPOS\KURSACH\KURSACH\KURSACH\DESCTOP.OBJ|C:\USERS\KIRILL\SOURCE\REPOS\KURSACH\KURSACH\KURSACH\INLINE.OBJ|C:\USERS\KIRILL\SOURCE\REPOS\KURSACH\KURSACH\KURSACH\LINUX.OBJ|C:\USERS\KIRILL\SOURCE\REPOS\KURSACH\KURSACH\KURSACH\LIST.OBJ|C:\USERS\KIRILL\SOURCE\REPOS\KURSACH\KURSACH\KURSACH\MAIN.OBJ|C:\USERS\KIRILL\SOURCE\REPOS\KURSACH\KURSACH\KURSACH\MENU.OBJ|C:\USERS\KIRILL\SOURCE\REPOS\KURSACH\KURSACH\KURSACH\REALTIME.OBJ|C:\USERS\KIRILL\SOURCE\REPOS\KURSACH\KURSACH\KURSACH\SERVER.OBJ|C:\USERS\KIRILL\SOURCE\REPOS\KURSACH\KURSACH\KURSACH\WINDOWS.OBJ
/OUT:"C:\USERS\KIRILL\SOURCE\REPOS\KURSACH\KURSACH\KURSACH.EXE" /INCREMENTAL /NOLOGO KERNEL32.LIB USER32.LIB GDI32.LIB WINSPOOL.LIB COMDLG32.LIB ADVAPI32.LIB SHELL32.LIB OLE32.LIB OLEAUT32.LIB UUID.LIB ODBC32.LIB ODBCCP32.LIB /MANIFEST /MANIFESTUAC:"level='asInvoker' uiAccess='false'" /manifest:embed /DEBUG:FASTLINK /PDB:"C:\USERS\KIRILL\SOURCE\REPOS\KURSACH\KURSACH\KURSACH.PDB" /SUBSYSTEM:CONSOLE /TLBID:1 /DYNAMICBASE /NXCOMPAT /IMPLIB:"C:\USERS\KIRILL\SOURCE\REPOS\KURSACH\KURSACH\KURSACH.LIB" /MACHINE:X86 KURSACH\DESCTOP.OBJ
KURSACH\INLINE.OBJ
KURSACH\LINUX.OBJ
KURSACH\LIST.OBJ
KURSACH\MAIN.OBJ
KURSACH\MENU.OBJ
KURSACH\REALTIME.OBJ
KURSACH\SERVER.OBJ
KURSACH\WINDOWS.OBJ
