^C:\USERS\КИТ\DESKTOP\KURSACH\KURSACH\X64\RELEASE\DESCTOP.OBJ|C:\USERS\КИТ\DESKTOP\KURSACH\KURSACH\X64\RELEASE\INLINE.OBJ|C:\USERS\КИТ\DESKTOP\KURSACH\KURSACH\X64\RELEASE\LINUX.OBJ|C:\USERS\КИТ\DESKTOP\KURSACH\KURSACH\X64\RELEASE\LIST.OBJ|C:\USERS\КИТ\DESKTOP\KURSACH\KURSACH\X64\RELEASE\MAIN.OBJ|C:\USERS\КИТ\DESKTOP\KURSACH\KURSACH\X64\RELEASE\MENU.OBJ|C:\USERS\КИТ\DESKTOP\KURSACH\KURSACH\X64\RELEASE\REALTIME.OBJ|C:\USERS\КИТ\DESKTOP\KURSACH\KURSACH\X64\RELEASE\SERVER.OBJ|C:\USERS\КИТ\DESKTOP\KURSACH\KURSACH\X64\RELEASE\WINDOWS.OBJ
/OUT:"C:\USERS\КИТ\DESKTOP\KURSACH\X64\RELEASE\KURSACH.EXE" /INCREMENTAL:NO /NOLOGO KERNEL32.LIB USER32.LIB GDI32.LIB WINSPOOL.LIB COMDLG32.LIB ADVAPI32.LIB SHELL32.LIB OLE32.LIB OLEAUT32.LIB UUID.LIB ODBC32.LIB ODBCCP32.LIB /MANIFEST /MANIFESTUAC:"level='asInvoker' uiAccess='false'" /manifest:embed /DEBUG /PDB:"C:\USERS\КИТ\DESKTOP\KURSACH\X64\RELEASE\KURSACH.PDB" /SUBSYSTEM:CONSOLE /OPT:REF /OPT:ICF /LTCG:incremental /TLBID:1 /DYNAMICBASE /NXCOMPAT /IMPLIB:"C:\USERS\КИТ\DESKTOP\KURSACH\X64\RELEASE\KURSACH.LIB" /MACHINE:X64 X64\RELEASE\DESCTOP.OBJ
X64\RELEASE\INLINE.OBJ
X64\RELEASE\LINUX.OBJ
X64\RELEASE\LIST.OBJ
X64\RELEASE\MAIN.OBJ
X64\RELEASE\MENU.OBJ
X64\RELEASE\REALTIME.OBJ
X64\RELEASE\SERVER.OBJ
X64\RELEASE\WINDOWS.OBJ
